{
  "project_info": {
    "project_number": "813595244474",
    "firebase_url": "https://testproject-35572.firebaseio.com",
    "project_id": "testproject-35572",
    "storage_bucket": "testproject-35572.appspot.com"
  },
  "client": [
    {
      "client_info": {
        "mobilesdk_app_id": "1:813595244474:android:40c8b3c6fef4a3d0",
        "android_client_info": {
          "package_name": "com.example.application.testapplication"
        }
      },
      "oauth_client": [
        {
          "client_id": "813595244474-7ri5be7i3amu8m24cmvj61146nfhl0or.apps.googleusercontent.com",
          "client_type": 1,
          "android_info": {
            "package_name": "com.example.application.testapplication",
            "certificate_hash": "b4f2639712812e3e35ee74bafee4fbbf7012549d"
          }
        },
        {
          "client_id": "813595244474-gurbnh7f4ccojo2ep2j7pevh5q39h7gi.apps.googleusercontent.com",
          "client_type": 3
        }
      ],
      "api_key": [
        {
          "current_key": "AIzaSyBwAnMJ_2afzBuTPopWP9iZ38ZKpf770U8"
        }
      ],
      "services": {
        "analytics_service": {
          "status": 1
        },
        "appinvite_service": {
          "status": 2,
          "other_platform_oauth_client": [
            {
              "client_id": "813595244474-gurbnh7f4ccojo2ep2j7pevh5q39h7gi.apps.googleusercontent.com",
              "client_type": 3
            }
          ]
        },
        "ads_service": {
          "status": 2
        }
      }
    }
  ],
  "configuration_version": "1"
}